[
  {
    "id": 1,
    "title": "Vegan Restaurent",
    "description": "Nirvana is a restaurant guide reviewing vegan & vegetarian friendly restaurants for breakfast, lunch & dinner in Stockholm. Our guide also makes it possible to filter restaurants on location, cuisine & level of sustainability.",
    "img": "NirvanaRestaurant.png",
    "technologies": [
      "React",
      "HTML",
      "CSS",
      "Bootsrap",
      "Recoil",
      "javascript"
    ],
    "gitLink": "https://gitlab.com/snehalkdm2191/vegan-restaurant",
    "hostLink": "https://nirvanaveganrestaurant.web.app/",
    "complete": true
  },
  {
    "id": 2,
    "title": "Package Tracker",
    "description": "Simple web app for our customers that displays a list of orders (or parcels) with some details they need to know like order status, ETAs, pickup locations, etc.",
    "img": "package-tracker-screenshot.png",
    "technologies": [
      "React",
      "HTML",
      "SAAS",
      "Bootsrap",
      "javascript"
    ],
    "gitLink": "https://gitlab.com/snehalkdm2191/instapacket-tracker",
    "hostLink": "https://instapackagetracker.web.app/",
    "complete": true
  },
  {
    "id": 3,
    "title": "ToDo List",
    "description": "Lorem Ipsum is simply dummy text of the printing and typesetting industry. Lorem Ipsum has been the industry's standard dummy text ever since the 1500s, when an unknown printer took a galley of type and scrambled it to make a type specimen book.",
    "img": "ToDoListSite.jpg",
    "technologies": [
      "React",
      "HTML",
      "CSS",
      "JAVA",
      "Docker",
      "SpringBoot",
      "javascript"
    ],
    "gitLink": "example",
    "hostLink": "hostexample",
    "complete": false
  },
  {
    "id": 4,
    "title": "E-Commerece Site",
    "description": "Lorem Ipsum is simply dummy text of the printing and typesetting industry. Lorem Ipsum has been the industry's standard dummy text ever since the 1500s, when an unknown printer took a galley of type and scrambled it to make a type specimen book.",
    "img": "EcommerceSite.jpg",
    "technologies": [
      "React",
      "HTML",
      "CSS",
      "JAVA",
      "Docker",
      "SpringBoot",
      "javascript"
    ],
    "gitLink": "example",
    "hostLink": "hostexample",
    "complete": false
  },
  {
    "id": 5,
    "title": "BBQ Restaurent",
    "description": "Lorem Ipsum is simply dummy text of the printing and typesetting industry. Lorem Ipsum has been the industry's standard dummy text ever since the 1500s, when an unknown printer took a galley of type and scrambled it to make a type specimen book.",
    "img": "BBQRestaurentSite.jpg",
    "technologies": [
      "React",
      "HTML",
      "CSS",
      "JAVA",
      "Docker",
      "SpringBoot",
      "javascript"
    ],
    "gitLink": "example",
    "hostLink": "hostexample",
    "complete": false
  },
  {
    "id": 6,
    "title": "Learning Platform",
    "description": "Simba is an e-learning platform for primary school students .Simba provides  courses materials  in the fields of math, social study, science, general knowledge, language and art prepared. It includes course  Materials  prepared by the teacher, assignment and tasks to  the students as well as quizzes in which they will receive feedback about their performance.",
    "img": "SimbaApp.png",
    "technologies": [
      "React",
      "HTML",
      "CSS",
      "JAVA",
      "Docker",
      "SpringBoot",
      "javascript"
    ],
    "gitLink": "https://gitlab.com/snehalkdm2191/simbha-learning-app",
    "hostLink": "https://simba-1f463.web.app/",
    "complete": true
  },
  {
    "id": 7,
    "title": "Netflix Clone",
    "description": "Lorem Ipsum is simply dummy text of the printing and typesetting industry. Lorem Ipsum has been the industry's standard dummy text ever since the 1500s, when an unknown printer took a galley of type and scrambled it to make a type specimen book.",
    "img": "NetflixClone.jpg",
    "technologies": [
      "React",
      "HTML",
      "CSS",
      "JAVA",
      "Docker",
      "SpringBoot",
      "javascript"
    ],
    "gitLink": "example",
    "hostLink": "hostexample",
    "complete": false
  }
]
